24
S-R-S-Fructuose_out_G09.xyz ---> S-R-S-Fructuose_out_G09_align.xyzMolecule B
H    -4.99055       0.44641        0.14653        
O    -4.26446       0.0520712      -0.343608      
C    -3.07454       0.811573       -0.087654      
H    -3.05149       1.72684        -0.692237      
H    -2.98597       1.07263        0.969257       
H    -2.98258       -1.5594        0.229806       
O    -2.04339       -1.33344       0.249531       
H    -1.97636       -0.308825      -1.54652       
C    -1.91709       -0.101422      -0.467812      
C    -0.554134      0.53358        -0.190533      
O    -0.554086      1.08307        1.11766        
H    -0.423536      1.33001        -0.937096      
H    -0.300365      -1.84528       0.579789       
H    0.243558       1.62198        1.18146        
H    0.564445       -0.790043      -1.45943       
C    0.609716       -0.454746      -0.405237      
O    0.621771       -1.56253       0.476288       
C    1.96113        0.255602       -0.227985      
O    2.04566        1.46045        -0.161628      
H    3.01481        -1.25996       0.781162       
H    3.12523        -1.3642        -0.975249      
C    3.16401        -0.661657      -0.127494      
O    4.34811        0.102264       -0.106095      
H    5.07146        -0.488694      0.119341       
